1,1,Name,contact@lisazahradesign.com.au,DIGITAL-2020-11-16-10:00AM-WINNING,0,Live
2,2,Name,susan@structure.net.au,DIGITAL-2020-11-16-10:00AM-WINNING,0,Live
3,3,Name,karin.illenberger@hotmail.com,DIGITAL-2020-11-16-10:00AM-WINNING,0,Live
4,4,Name,shona.pauly@bigpond.com,DIGITAL-2020-11-16-10:00AM-WINNING,0,Live
5,5,Name,mydaras@optusnet.com.au,DIGITAL-2020-11-16-10:00AM-WINNING,0,Live
6,6,Name,the.lexie@gmail.com,DIGITAL-2020-11-16-10:00AM-WINNING,0,Live
7,7,Name,frances.lynch@subzero.com,DIGITAL-2020-11-16-10:00AM-WINNING,0,Live
8,8,Name,monicaggiddey@icloud.com,DIGITAL-2020-11-16-10:00AM-WINNING,0,Live
9,9,Name,emma.read@electrolux.com,DIGITAL-2020-11-16-10:00AM-WINNING,0,Live
10,10,Name,hans@designfieldinteriors.com.au,DIGITAL-2020-11-16-10:00AM-WINNING,0,Live
11,11,Name,loren.inglis@reece.com.au,DIGITAL-2020-11-16-10:00AM-WINNING,0,Live
12,12,Name,info@designingdivas.com.au,DIGITAL-2020-11-16-10:00AM-WINNING,0,Live
13,13,Name,info@arinteriors.com.au,DIGITAL-2020-11-16-10:00AM-WINNING,0,Live
14,14,Name,ciaramaree@hotmail.com,DIGITAL-2020-11-16-10:00AM-WINNING,0,Live
15,15,Name,otsdesign@yahoo.com.au,DIGITAL-2020-11-16-10:00AM-WINNING,0,Live
16,16,Name,kate@lanceworkshop.com,DIGITAL-2020-11-16-10:00AM-WINNING,0,Live
17,17,Name,pia@piafrancesca.com,DIGITAL-2020-11-16-10:00AM-WINNING,0,Live
18,18,Name,interiors@dinterni.com.au,DIGITAL-2020-11-16-10:00AM-WINNING,0,Live
19,19,Name,hello@verityjayne.com.au,DIGITAL-2020-11-16-10:00AM-WINNING,0,Live
20,20,Name,mcampio2@une.edu.au,DIGITAL-2020-11-16-10:00AM-WINNING,0,Live
21,21,Name,nikki@nikkimotearchitect.com,DIGITAL-2020-11-16-10:00AM-WINNING,0,Live
22,22,Name,nadlemos1997@gmail.com,DIGITAL-2020-11-16-10:00AM-WINNING,0,Live
23,23,Name,ewingad@batessmart.com,DIGITAL-2020-11-16-10:00AM-WINNING,0,Live
24,24,Name,liz.creagh@breezway.com.au,DIGITAL-2020-11-16-10:00AM-WINNING,0,Live
25,25,Name,danielle@harringtonkitchens.com.au,DIGITAL-2020-11-16-10:00AM-WINNING,0,Live
26,26,Name,sophie.haasnoot@winning.com.au,DIGITAL-2020-11-16-10:00AM-WINNING,0,Live
27,27,Name,sam.mackerras@reece.com.au,DIGITAL-2020-11-16-10:00AM-WINNING,0,Live
28,28,Name,ldimichiel@gwagroup.com.au,DIGITAL-2020-11-16-10:00AM-WINNING,0,Live
29,29,Name,martin@kinect.com.au,DIGITAL-2020-11-16-10:00AM-WINNING,0,Live
30,30,Name,debbie.joy.ryan@gmail.com,DIGITAL-2020-11-16-10:00AM-WINNING,0,Live
31,31,Name,binpower45@gmail.com,DIGITAL-2020-11-16-10:00AM-WINNING,0,Live
32,32,Name,pandawoods@grapevine.com.au,DIGITAL-2020-11-16-10:00AM-WINNING,0,Live
33,33,Name,michele@binginbarfarms.com.au,DIGITAL-2020-11-16-10:00AM-WINNING,0,Live
34,34,Name,rachel.lewis@reece.com.au,DIGITAL-2020-11-16-10:00AM-WINNING,0,Live
35,35,Name,pkstrover@iconip.com,DIGITAL-2020-11-16-10:00AM-WINNING,0,Live
36,36,Name,rebecca.boland@chada.com.au,DIGITAL-2020-11-16-10:00AM-WINNING,0,Live
37,37,Name,kyliehickman01@yahoo.com.au,DIGITAL-2020-11-16-10:00AM-WINNING,0,Live
38,38,Name,nelg73@outlook.com,DIGITAL-2020-11-16-10:00AM-WINNING,0,Live
39,39,Name,brunetta@indesign.com.au,DIGITAL-2020-11-16-10:00AM-WINNING,0,Live
40,40,Name,megan_mcclelland@hotmail.com,DIGITAL-2020-11-16-10:00AM-WINNING,0,Live
41,41,Name,megan_mcclelland@hotmail.com,DIGITAL-2020-11-16-10:00AM-WINNING,0,Live
42,42,Name,alison.ludwig@optusnet.com.au,DIGITAL-2020-11-16-10:00AM-WINNING,0,Live
43,43,Name,Victoria@hareklein.com.au,DIGITAL-2020-11-16-10:00AM-WINNING,0,Live
44,44,Name,marija@urspace.com.au,DIGITAL-2020-11-16-10:00AM-WINNING,0,Live
45,45,Name,libbie@connectedeventgroup.com,DIGITAL-2020-11-16-10:00AM-WINNING,0,Live
46,46,Name,vsmurray@mac.com,DIGITAL-2020-11-16-10:00AM-WINNING,0,Live
47,47,Name,liamclonakenny@gmail.com,DIGITAL-2020-11-16-10:00AM-WINNING,0,Live
48,48,Name,denman@ihug.com.au,DIGITAL-2020-11-16-10:00AM-WINNING,0,Live
49,49,Name,insanctum@aapt.net.au,DIGITAL-2020-11-16-10:00AM-WINNING,0,Live
50,50,Name,hello@brittwhitestudio.com,DIGITAL-2020-11-16-10:00AM-WINNING,0,Live