6661,1365,"kel foster",kfoster@scentregroup.com,DIGITAL-2020-11-24-11:00AM-DNA,214.965,Live
6662,2694,"Harry Schier",harry.schier6@gmail.com,DIGITAL-2020-11-24-12:00PM-PORTA,135.662,"On Demand"
6663,2882,"Katharine Manning",katharine@manningco.com.au,DIGITAL-2020-11-24-12:00PM-PORTA,2196.291,"On Demand"
6664,643,"Chris Styles",christopher.styles@tafensw.edu.au,DIGITAL-2020-11-26-13:00PM-GREATDANE,121.788,"On Demand"
6665,1915,"Karmen Lee",jiamin_lee@hotmail.com,DIGITAL-2020-11-27-13:00PM-FLOKK,87.538,"On Demand"
6666,1915,"Karmen Lee",jiamin_lee@hotmail.com,DIGITAL-2020-11-27-13:00PM-FLOKK,89.425,"On Demand"
6667,1915,"Karmen Lee",jiamin_lee@hotmail.com,DIGITAL-2020-11-26-19:00PM-CULT,123.386,"On Demand"
6668,1281,"Tim Phillips",tim@tilt-industrialdesign.com,DIGITAL-2020-11-25-13:00PM-TILT,588.827,"On Demand"
6669,445,"Jacqui Jeavons",j.jeavons@hotmail.com,DIGITAL-2020-11-16-12:00PM-FLOKK,4758.666,Live
6670,722,"Madeleine Stewart",madeleine@hammondstudio.co,DIGITAL-2020-11-24-12:00PM-PORTA,43.75,"On Demand"
6671,2609,"Jessica Gombault",jessica@alexandrakidd.com,DIGITAL-2020-11-27-12:00PM-VZUG,3349.696,"On Demand"
6672,722,"Madeleine Stewart",madeleine@hammondstudio.co,DIGITAL-2020-11-24-12:00PM-PORTA,2912.672,"On Demand"
6673,2120,"Nic Naes",nic.naes@vzug.com,DIGITAL-2020-11-27-12:00PM-VZUG,1997.941,"On Demand"
6674,2902,"Monique Luchterhand",luchterhand.monique@gmail.com,DIGITAL-2020-11-24-12:00PM-PORTA,0.091,"On Demand"
6675,2902,"Monique Luchterhand",luchterhand.monique@gmail.com,DIGITAL-2020-11-27-13:00PM-FLOKK,668.5,"On Demand"
6676,316,"George Criollo",george.criollo.design@gmail.com,DIGITAL-2020-11-16-14:00PM-ABOUTSPACE,7017.545,Live
6677,2902,"Monique Luchterhand",luchterhand.monique@gmail.com,DIGITAL-2020-11-26-13:00PM-GREATDANE,1568.585,"On Demand"
6678,1573,"Marie Cedergren",marie.cedergren@flokk.com,DIGITAL-2020-11-16-12:00PM-FLOKK,37.769,"On Demand"
6679,2902,"Monique Luchterhand",luchterhand.monique@gmail.com,DIGITAL-2020-11-25-15:00PM-CANTILEVER,1592.722,"On Demand"
6680,2902,"Monique Luchterhand",luchterhand.monique@gmail.com,DIGITAL-2020-11-16-20:00PM-CULT,2124.963,"On Demand"
6681,2905,"Billy Maynard",mail@bmaynard.com,DIGITAL-2020-11-25-13:00PM-TILT,837.558,"On Demand"
6682,295,"Hilde Bull-Engelstad",hilde.bull-engelstad@flokk.com,DIGITAL-2020-11-27-13:00PM-FLOKK,115.083,"On Demand"
6683,316,"George Criollo",george.criollo.design@gmail.com,DIGITAL-2020-11-16-14:00PM-ABOUTSPACE,7.942,Live
6684,1400,"Zac Duryea",zac.duryea@stantec.com,DIGITAL-2020-11-27-12:00PM-VZUG,2168.16,Live
6685,1114,"Blake Wood",blake@gloform.com.au,DIGITAL-2020-11-16-14:00PM-ABOUTSPACE,539.434,"On Demand"
